\relax 
\providecommand\hyper@newdestlabel[2]{}
\providecommand\HyperFirstAtBeginDocument{\AtBeginDocument}
\HyperFirstAtBeginDocument{\ifx\hyper@anchor\@undefined
\global\let\oldcontentsline\contentsline
\gdef\contentsline#1#2#3#4{\oldcontentsline{#1}{#2}{#3}}
\global\let\oldnewlabel\newlabel
\gdef\newlabel#1#2{\newlabelxx{#1}#2}
\gdef\newlabelxx#1#2#3#4#5#6{\oldnewlabel{#1}{{#2}{#3}}}
\AtEndDocument{\ifx\hyper@anchor\@undefined
\let\contentsline\oldcontentsline
\let\newlabel\oldnewlabel
\fi}
\fi}
\global\let\hyper@last\relax 
\gdef\HyperFirstAtBeginDocument#1{#1}
\providecommand\HyField@AuxAddToFields[1]{}
\providecommand\HyField@AuxAddToCoFields[2]{}
\citation{matz2014effects}
\citation{predict_indoor}
\citation{zhang2016litell,van2014camera}
\citation{langlois2017indoor}
\citation{yuan2014localization}
\citation{mirshekari2018occupant}
\citation{hu2018lightitude,zhu2017enabling}
\citation{ni2003landmarc,jin2006indoor,wang2013dude,wang2013rf}
\citation{adib15:NSDI:multi,gjengset14:MobiCom:phaser,xiong2013arraytrack,vasisht16:NSDI:decimeter,xiong15:MobiCom:tonetrack,qian2018:mobisys:widar2,joshi:NSDI:2015wideo,soltanaghaei18:MobiSys:multipath,kotaru15:SIGCOMM:spotfi,wang16:mobicom:lifs}
\citation{vasisht18:IMWUT:duet,zhao19:DCOSS:mid,gu19:MNSS:mmsense,pegoraro20::multi}
\citation{lin19:MobiCom:rebooting,cheng20:INFOCOM:acouradar,mao16:MobiCom:cat,nandakumar17:IMWUT:covertband,peng2012beepbeep,zhou17:ENS:battracker,zhang2018vernier,liu2015guoguo}
\citation{gupta12:HFCS:soundwave,nandakumar2016fingerio,mao19:MobiCom:rnn,yun17:MobiSys:strata,chen2017echotrack,wang2016device,wang20:push}
\@writefile{toc}{\contentsline {section}{Abstract}{1}{section*.1}\protected@file@percent }
\@writefile{toc}{\contentsline {section}{\numberline {1}INTRODUCTION}{1}{section.1}\protected@file@percent }
\citation{yuan2014localization}
\citation{fourati2014heterogeneous}
\citation{zhang2016litell,van2014camera,xu::xuedge,bowman17:ICRA:probabilistic}
\citation{taketomi2017visual}
\citation{orr2000smart,mirshekari2018occupant}
\citation{kuo2014luxapose,gao2015sextant,xie2016lips,wei2017celli,liu2017smartlight,hu2018lightitude}
\@writefile{toc}{\contentsline {section}{\numberline {2}RELATED WORK}{2}{section.2}\protected@file@percent }
\citation{ni2003landmarc,jin2006indoor,wang2013dude,wang2013rf}
\citation{Chen20:InfoCom:TagRay,Yang20:InfoCom:RF-Ear}
\citation{adib15:NSDI:multi,gjengset14:MobiCom:phaser,xiong2013arraytrack,vasisht16:NSDI:decimeter,xiong15:MobiCom:tonetrack,qian2018:mobisys:widar2,joshi:NSDI:2015wideo,soltanaghaei18:MobiSys:multipath,kotaru15:SIGCOMM:spotfi,wang16:mobicom:lifs}
\citation{vasisht18:IMWUT:duet,zhao19:DCOSS:mid,gu19:MNSS:mmsense,pegoraro20::multi}
\citation{lin19:MobiCom:rebooting,cheng20:INFOCOM:acouradar,mao16:MobiCom:cat,peng2012beepbeep,zhou17:ENS:battracker,zhang2018vernier,liu2015guoguo}
\citation{gupta12:HFCS:soundwave,nandakumar2016fingerio,mao19:MobiCom:rnn,yun17:MobiSys:strata,chen2017echotrack,wang2016device,wang20:push}
\citation{zhang17:CCS:hearing}
\citation{lu18:infocom:lippass}
\citation{chauhan17:MSAS:breathprint}
\citation{nandakumar17:IMWUT:covertband}
\@writefile{toc}{\contentsline {section}{\numberline {3}SYSTEM DESIGN}{3}{section.3}\protected@file@percent }
\newlabel{sec:sys_des}{{3}{3}{SYSTEM DESIGN}{section.3}{}}
\@writefile{lof}{\contentsline {figure}{\numberline {1}{\ignorespaces The workflow of EchoSpot.\relax }}{4}{figure.caption.2}\protected@file@percent }
\providecommand*\caption@xref[2]{\@setref\relax\@undefined{#1}}
\newlabel{systemdesign}{{1}{4}{The workflow of EchoSpot.\relax }{figure.caption.2}{}}
\@writefile{toc}{\contentsline {subsection}{\numberline {3.1}System Overview}{4}{subsection.3.1}\protected@file@percent }
\@writefile{toc}{\contentsline {subsection}{\numberline {3.2}Signal Generation}{5}{subsection.3.2}\protected@file@percent }
\newlabel{eq2}{{2}{5}{Signal Generation}{equation.3.2}{}}
\newlabel{eq_d}{{3}{5}{Signal Generation}{equation.3.3}{}}
\newlabel{basic}{{5}{5}{Signal Generation}{equation.3.5}{}}
\citation{hahn1996hilbert}
\@writefile{lof}{\contentsline {figure}{\numberline {2}{\ignorespaces FMCW signal after the Hanning window reshaping.\relax }}{6}{figure.caption.3}\protected@file@percent }
\newlabel{hann}{{2}{6}{FMCW signal after the Hanning window reshaping.\relax }{figure.caption.3}{}}
\@writefile{toc}{\contentsline {subsection}{\numberline {3.3}TOF Profile Generation}{6}{subsection.3.3}\protected@file@percent }
\newlabel{TOF Profile Generation}{{3.3}{6}{TOF Profile Generation}{subsection.3.3}{}}
\newlabel{correlation}{{6}{6}{TOF Profile Generation}{equation.3.6}{}}
\@writefile{lof}{\contentsline {figure}{\numberline {3}{\ignorespaces Example of cross correlation.\relax }}{7}{figure.caption.4}\protected@file@percent }
\newlabel{example}{{3}{7}{Example of cross correlation.\relax }{figure.caption.4}{}}
\@writefile{lof}{\contentsline {figure}{\numberline {4}{\ignorespaces Example of TOF profile.\relax }}{7}{figure.caption.4}\protected@file@percent }
\newlabel{example5}{{4}{7}{Example of TOF profile.\relax }{figure.caption.4}{}}
\@writefile{lof}{\contentsline {figure}{\numberline {5}{\ignorespaces TOF profile after eliminating the time error.\relax }}{7}{figure.caption.4}\protected@file@percent }
\newlabel{example2}{{5}{7}{TOF profile after eliminating the time error.\relax }{figure.caption.4}{}}
\newlabel{delay}{{7}{7}{TOF Profile Generation}{equation.3.7}{}}
\@writefile{lof}{\contentsline {figure}{\numberline {6}{\ignorespaces Denoised TOF profile.\relax }}{8}{figure.caption.5}\protected@file@percent }
\newlabel{pure}{{6}{8}{Denoised TOF profile.\relax }{figure.caption.5}{}}
\@writefile{lof}{\contentsline {figure}{\numberline {7}{\ignorespaces Location model.\relax }}{8}{figure.caption.5}\protected@file@percent }
\newlabel{wall}{{7}{8}{Location model.\relax }{figure.caption.5}{}}
\@writefile{lof}{\contentsline {figure}{\numberline {8}{\ignorespaces Different reflection path.\relax }}{8}{figure.caption.5}\protected@file@percent }
\newlabel{reflection}{{8}{8}{Different reflection path.\relax }{figure.caption.5}{}}
\@writefile{toc}{\contentsline {subsection}{\numberline {3.4}Localization}{8}{subsection.3.4}\protected@file@percent }
\newlabel{sec:localization}{{3.4}{8}{Localization}{subsection.3.4}{}}
\newlabel{solution}{{9}{8}{Localization}{equation.3.9}{}}
\citation{welch1995introduction}
\@writefile{lof}{\contentsline {figure}{\numberline {9}{\ignorespaces Reflection from body and wall.\relax }}{9}{figure.caption.6}\protected@file@percent }
\newlabel{sample4}{{9}{9}{Reflection from body and wall.\relax }{figure.caption.6}{}}
\@writefile{toc}{\contentsline {subsection}{\numberline {3.5}Correcting the Location}{10}{subsection.3.5}\protected@file@percent }
\@writefile{toc}{\contentsline {section}{\numberline {4}PERFORMANCE EVALUATION}{10}{section.4}\protected@file@percent }
\newlabel{sec:performance}{{4}{10}{PERFORMANCE EVALUATION}{section.4}{}}
\@writefile{toc}{\contentsline {subsection}{\numberline {4.1}Experiments}{10}{subsection.4.1}\protected@file@percent }
\citation{kotaru2015spotfi,xiong2013arraytrack}
\@writefile{lof}{\contentsline {figure}{\numberline {10}{\ignorespaces Averaged localization errors at $1m, 2m, 3m, 4m$ and $5m$.\relax }}{11}{figure.caption.7}\protected@file@percent }
\newlabel{Distance}{{10}{11}{Averaged localization errors at $1m, 2m, 3m, 4m$ and $5m$.\relax }{figure.caption.7}{}}
\@writefile{lof}{\contentsline {figure}{\numberline {11}{\ignorespaces Tracking the moving trajectory of a person.\relax }}{11}{figure.caption.7}\protected@file@percent }
\newlabel{Rectangle}{{11}{11}{Tracking the moving trajectory of a person.\relax }{figure.caption.7}{}}
\@writefile{lof}{\contentsline {figure}{\numberline {12}{\ignorespaces Locating a static person at different reference points.\relax }}{11}{figure.caption.7}\protected@file@percent }
\newlabel{points}{{12}{11}{Locating a static person at different reference points.\relax }{figure.caption.7}{}}
\@writefile{toc}{\contentsline {subsection}{\numberline {4.2}Performance of Localization}{11}{subsection.4.2}\protected@file@percent }
\@writefile{lof}{\contentsline {figure}{\numberline {13}{\ignorespaces CDF for Trajectory Error and Localization Error.\relax }}{12}{figure.caption.8}\protected@file@percent }
\newlabel{CDF}{{13}{12}{CDF for Trajectory Error and Localization Error.\relax }{figure.caption.8}{}}
\@writefile{lof}{\contentsline {figure}{\numberline {14}{\ignorespaces Impact of the speaker separation.\relax }}{12}{figure.caption.8}\protected@file@percent }
\newlabel{sepration}{{14}{12}{Impact of the speaker separation.\relax }{figure.caption.8}{}}
\@writefile{lof}{\contentsline {figure}{\numberline {15}{\ignorespaces Impact of the height.\relax }}{12}{figure.caption.8}\protected@file@percent }
\newlabel{height}{{15}{12}{Impact of the height.\relax }{figure.caption.8}{}}
\@writefile{toc}{\contentsline {subsection}{\numberline {4.3}Impact of Device Placement}{12}{subsection.4.3}\protected@file@percent }
\newlabel{placement}{{4.3}{12}{Impact of Device Placement}{subsection.4.3}{}}
\@writefile{lof}{\contentsline {figure}{\numberline {16}{\ignorespaces Impact of the speed.\relax }}{13}{figure.caption.9}\protected@file@percent }
\newlabel{speed}{{16}{13}{Impact of the speed.\relax }{figure.caption.9}{}}
\@writefile{lof}{\contentsline {figure}{\numberline {17}{\ignorespaces Impact of the environment.\relax }}{13}{figure.caption.9}\protected@file@percent }
\newlabel{room}{{17}{13}{Impact of the environment.\relax }{figure.caption.9}{}}
\@writefile{toc}{\contentsline {subsection}{\numberline {4.4}Impact of Moving Speed}{13}{subsection.4.4}\protected@file@percent }
\newlabel{sec_speed}{{4.4}{13}{Impact of Moving Speed}{subsection.4.4}{}}
\@writefile{toc}{\contentsline {subsection}{\numberline {4.5}Performance at Different Room Layout}{13}{subsection.4.5}\protected@file@percent }
\@writefile{toc}{\contentsline {subsection}{\numberline {4.6}Impact of Different Device}{13}{subsection.4.6}\protected@file@percent }
\@writefile{lof}{\contentsline {figure}{\numberline {18}{\ignorespaces Impact of the device.\relax }}{14}{figure.caption.10}\protected@file@percent }
\newlabel{device}{{18}{14}{Impact of the device.\relax }{figure.caption.10}{}}
\@writefile{lof}{\contentsline {figure}{\numberline {19}{\ignorespaces Impact of the noise.\relax }}{14}{figure.caption.10}\protected@file@percent }
\newlabel{noise}{{19}{14}{Impact of the noise.\relax }{figure.caption.10}{}}
\@writefile{toc}{\contentsline {subsection}{\numberline {4.7}Impact of Noise}{14}{subsection.4.7}\protected@file@percent }
\newlabel{subsec:discussion}{{4.7}{14}{Impact of Noise}{subsection.4.7}{}}
\@writefile{toc}{\contentsline {section}{\numberline {5}Discussions}{14}{section.5}\protected@file@percent }
\bibstyle{ACM-Reference-Format}
\bibdata{ref}
\bibcite{adib15:NSDI:multi}{{1}{2015}{{Adib et~al\unhbox \voidb@x \hbox {.}}}{{Adib, Kabelac, and Katabi}}}
\bibcite{bowman17:ICRA:probabilistic}{{2}{2017}{{Bowman et~al\unhbox \voidb@x \hbox {.}}}{{Bowman, Atanasov, Daniilidis, and Pappas}}}
\bibcite{chauhan17:MSAS:breathprint}{{3}{2017}{{Chauhan et~al\unhbox \voidb@x \hbox {.}}}{{Chauhan, Hu, Seneviratne, Misra, Seneviratne, and Lee}}}
\bibcite{chen2017echotrack}{{4}{2017}{{Chen et~al\unhbox \voidb@x \hbox {.}}}{{Chen, Li, and Wang}}}
\bibcite{Chen20:InfoCom:TagRay}{{5}{2020}{{Chen et~al\unhbox \voidb@x \hbox {.}}}{{Chen, Yang, Xiong, Feng, and Li}}}
\bibcite{cheng20:INFOCOM:acouradar}{{6}{2020}{{Cheng et~al\unhbox \voidb@x \hbox {.}}}{{Cheng, Wang, Zhang, Wang, Xu, and Wang}}}
\bibcite{fourati2014heterogeneous}{{7}{2014}{{Fourati}}{{Fourati}}}
\bibcite{gao2015sextant}{{8}{2015}{{Gao et~al\unhbox \voidb@x \hbox {.}}}{{Gao, Tian, Ye, Luo, Bian, Wang, Wang, and Li}}}
\bibcite{gjengset14:MobiCom:phaser}{{9}{2014}{{Gjengset et~al\unhbox \voidb@x \hbox {.}}}{{Gjengset, Xiong, McPhillips, and Jamieson}}}
\@writefile{toc}{\contentsline {section}{\numberline {6}CONCLUSION}{15}{section.6}\protected@file@percent }
\newlabel{sec:conclude}{{6}{15}{CONCLUSION}{section.6}{}}
\@writefile{toc}{\contentsline {section}{References}{15}{section*.12}\protected@file@percent }
\bibcite{gu19:MNSS:mmsense}{{10}{2019}{{Gu et~al\unhbox \voidb@x \hbox {.}}}{{Gu, Fang, Yang, Hu, and Mohapatra}}}
\bibcite{gupta12:HFCS:soundwave}{{11}{2012}{{Gupta et~al\unhbox \voidb@x \hbox {.}}}{{Gupta, Morris, Patel, and Tan}}}
\bibcite{hahn1996hilbert}{{12}{1996}{{Hahn}}{{Hahn}}}
\bibcite{hu2018lightitude}{{13}{2018}{{Hu et~al\unhbox \voidb@x \hbox {.}}}{{Hu, Xiong, Huang, Li, Yang, Zhang, and Mao}}}
\bibcite{predict_indoor}{{14}{2017}{{IndustryArc}}{{IndustryArc}}}
\bibcite{jin2006indoor}{{15}{2006}{{Jin et~al\unhbox \voidb@x \hbox {.}}}{{Jin, Lu, and Park}}}
\bibcite{joshi:NSDI:2015wideo}{{16}{2015}{{Joshi et~al\unhbox \voidb@x \hbox {.}}}{{Joshi, Bharadia, Kotaru, and Katti}}}
\bibcite{kotaru15:SIGCOMM:spotfi}{{17}{2015a}{{Kotaru et~al\unhbox \voidb@x \hbox {.}}}{{Kotaru, Joshi, Bharadia, and Katti}}}
\bibcite{kotaru2015spotfi}{{18}{2015b}{{Kotaru et~al\unhbox \voidb@x \hbox {.}}}{{Kotaru, Joshi, Bharadia, and Katti}}}
\bibcite{kuo2014luxapose}{{19}{2014}{{Kuo et~al\unhbox \voidb@x \hbox {.}}}{{Kuo, Pannuto, Hsiao, and Dutta}}}
\bibcite{langlois2017indoor}{{20}{2017}{{Langlois et~al\unhbox \voidb@x \hbox {.}}}{{Langlois, Tiku, and Pasricha}}}
\bibcite{lin19:MobiCom:rebooting}{{21}{2019}{{Lin et~al\unhbox \voidb@x \hbox {.}}}{{Lin, An, and Yang}}}
\bibcite{liu2015guoguo}{{22}{2015}{{Liu et~al\unhbox \voidb@x \hbox {.}}}{{Liu, Liu, and Li}}}
\bibcite{liu2017smartlight}{{23}{2017}{{Liu and He}}{{Liu and He}}}
\bibcite{lu18:infocom:lippass}{{24}{2018}{{Lu et~al\unhbox \voidb@x \hbox {.}}}{{Lu, Yu, Chen, Liu, Zhu, Liu, and Li}}}
\bibcite{mao16:MobiCom:cat}{{25}{2016}{{Mao et~al\unhbox \voidb@x \hbox {.}}}{{Mao, He, and Qiu}}}
\bibcite{mao19:MobiCom:rnn}{{26}{2019}{{Mao et~al\unhbox \voidb@x \hbox {.}}}{{Mao, Wang, Sun, Qiu, Pradhan, and Chen}}}
\bibcite{matz2014effects}{{27}{2014}{{Matz et~al\unhbox \voidb@x \hbox {.}}}{{Matz, Stieb, Davis, Egyed, Rose, Chou, and Brion}}}
\bibcite{mirshekari2018occupant}{{28}{2018}{{Mirshekari et~al\unhbox \voidb@x \hbox {.}}}{{Mirshekari, Pan, Fagert, Schooler, Zhang, and Noh}}}
\bibcite{nandakumar2016fingerio}{{29}{2016}{{Nandakumar et~al\unhbox \voidb@x \hbox {.}}}{{Nandakumar, Iyer, Tan, and Gollakota}}}
\bibcite{nandakumar17:IMWUT:covertband}{{30}{2017}{{Nandakumar et~al\unhbox \voidb@x \hbox {.}}}{{Nandakumar, Takakuwa, Kohno, and Gollakota}}}
\bibcite{ni2003landmarc}{{31}{2003}{{Ni et~al\unhbox \voidb@x \hbox {.}}}{{Ni, Liu, Lau, and Patil}}}
\bibcite{orr2000smart}{{32}{2000}{{Orr and Abowd}}{{Orr and Abowd}}}
\bibcite{pegoraro20::multi}{{33}{2020}{{Pegoraro et~al\unhbox \voidb@x \hbox {.}}}{{Pegoraro, Meneghello, and Rossi}}}
\bibcite{peng2012beepbeep}{{34}{2012}{{Peng et~al\unhbox \voidb@x \hbox {.}}}{{Peng, Shen, and Zhang}}}
\bibcite{qian2018:mobisys:widar2}{{35}{2018}{{Qian et~al\unhbox \voidb@x \hbox {.}}}{{Qian, Wu, Zhang, Zhang, Yang, and Liu}}}
\bibcite{soltanaghaei18:MobiSys:multipath}{{36}{2018}{{Soltanaghaei et~al\unhbox \voidb@x \hbox {.}}}{{Soltanaghaei, Kalyanaraman, and Whitehouse}}}
\bibcite{taketomi2017visual}{{37}{2017}{{Taketomi et~al\unhbox \voidb@x \hbox {.}}}{{Taketomi, Uchiyama, and Ikeda}}}
\bibcite{van2014camera}{{38}{2014}{{Van~Opdenbosch et~al\unhbox \voidb@x \hbox {.}}}{{Van~Opdenbosch, Schroth, Huitl, Hilsenbeck, Garcea, and Steinbach}}}
\bibcite{vasisht18:IMWUT:duet}{{39}{2018}{{Vasisht et~al\unhbox \voidb@x \hbox {.}}}{{Vasisht, Jain, Hsu, Kabelac, and Katabi}}}
\bibcite{vasisht16:NSDI:decimeter}{{40}{2016}{{Vasisht et~al\unhbox \voidb@x \hbox {.}}}{{Vasisht, Kumar, and Katabi}}}
\bibcite{wang2013rf}{{41}{2013}{{Wang et~al\unhbox \voidb@x \hbox {.}}}{{Wang, Adib, Knepper, Katabi, and Rus}}}
\bibcite{wang16:mobicom:lifs}{{42}{2016a}{{Wang et~al\unhbox \voidb@x \hbox {.}}}{{Wang, Jiang, Xiong, Jamieson, Chen, Fang, and Xie}}}
\bibcite{wang2013dude}{{43}{2013}{{Wang and Katabi}}{{Wang and Katabi}}}
\bibcite{wang2016device}{{44}{2016b}{{Wang et~al\unhbox \voidb@x \hbox {.}}}{{Wang, Liu, and Sun}}}
\bibcite{wang20:push}{{45}{2020}{{Wang et~al\unhbox \voidb@x \hbox {.}}}{{Wang, Shen, and Zheng}}}
\bibcite{wei2017celli}{{46}{2017}{{Wei et~al\unhbox \voidb@x \hbox {.}}}{{Wei, Huang, Tsai, and Lin}}}
\bibcite{welch1995introduction}{{47}{1995}{{Welch et~al\unhbox \voidb@x \hbox {.}}}{{Welch, Bishop, et~al\unhbox \voidb@x \hbox {.}}}}
\bibcite{xie2016lips}{{48}{2016}{{Xie et~al\unhbox \voidb@x \hbox {.}}}{{Xie, Chen, Tan, Lu, Liu, Wu, and He}}}
\bibcite{xiong2013arraytrack}{{49}{2013}{{Xiong and Jamieson}}{{Xiong and Jamieson}}}
\bibcite{xiong15:MobiCom:tonetrack}{{50}{2015}{{Xiong et~al\unhbox \voidb@x \hbox {.}}}{{Xiong, Sundaresan, and Jamieson}}}
\bibcite{xu::xuedge}{{51}{2020}{{Xu et~al\unhbox \voidb@x \hbox {.}}}{{Xu, Cao, Li, Huang, Qian, Shangguan, and Yang}}}
\bibcite{Yang20:InfoCom:RF-Ear}{{52}{2020}{{Yang et~al\unhbox \voidb@x \hbox {.}}}{{Yang, Feng, Xiong, Chen, and Li}}}
\bibcite{yuan2014localization}{{53}{2014}{{Yuan and Chen}}{{Yuan and Chen}}}
\bibcite{yun17:MobiSys:strata}{{54}{2017}{{Yun et~al\unhbox \voidb@x \hbox {.}}}{{Yun, Chen, Zheng, Qiu, and Mao}}}
\bibcite{zhang2016litell}{{55}{2016}{{Zhang and Zhang}}{{Zhang and Zhang}}}
\bibcite{zhang17:CCS:hearing}{{56}{2017}{{Zhang et~al\unhbox \voidb@x \hbox {.}}}{{Zhang, Tan, and Yang}}}
\bibcite{zhang2018vernier}{{57}{2018}{{Zhang et~al\unhbox \voidb@x \hbox {.}}}{{Zhang, Wang, Wang, Wang, and Liu}}}
\bibcite{zhao19:DCOSS:mid}{{58}{2019}{{Zhao et~al\unhbox \voidb@x \hbox {.}}}{{Zhao, Lu, Wang, Chen, Wang, Trigoni, and Markham}}}
\bibcite{zhou17:ENS:battracker}{{59}{2017}{{Zhou et~al\unhbox \voidb@x \hbox {.}}}{{Zhou, Elbadry, Gao, and Ye}}}
\bibcite{zhu2017enabling}{{60}{2017}{{Zhu and Zhang}}{{Zhu and Zhang}}}
\newlabel{tocindent-1}{0pt}
\newlabel{tocindent0}{0pt}
\newlabel{tocindent1}{4.65pt}
\newlabel{tocindent2}{11.49998pt}
\newlabel{tocindent3}{0pt}
\newlabel{TotPages}{{18}{18}{}{page.18}{}}
