\BOOKMARK [1][-]{section*.1}{\376\377\000A\000b\000s\000t\000r\000a\000c\000t}{}% 1
\BOOKMARK [1][-]{section.1}{\376\377\0001\000\040\000I\000N\000T\000R\000O\000D\000U\000C\000T\000I\000O\000N}{}% 2
\BOOKMARK [1][-]{section.2}{\376\377\0002\000\040\000R\000E\000L\000A\000T\000E\000D\000\040\000W\000O\000R\000K}{}% 3
\BOOKMARK [1][-]{section.3}{\376\377\0003\000\040\000S\000Y\000S\000T\000E\000M\000\040\000D\000E\000S\000I\000G\000N}{}% 4
\BOOKMARK [2][-]{subsection.3.1}{\376\377\0003\000.\0001\000\040\000S\000y\000s\000t\000e\000m\000\040\000O\000v\000e\000r\000v\000i\000e\000w}{section.3}% 5
\BOOKMARK [2][-]{subsection.3.2}{\376\377\0003\000.\0002\000\040\000S\000i\000g\000n\000a\000l\000\040\000G\000e\000n\000e\000r\000a\000t\000i\000o\000n}{section.3}% 6
\BOOKMARK [2][-]{subsection.3.3}{\376\377\0003\000.\0003\000\040\000T\000O\000F\000\040\000P\000r\000o\000f\000i\000l\000e\000\040\000G\000e\000n\000e\000r\000a\000t\000i\000o\000n}{section.3}% 7
\BOOKMARK [2][-]{subsection.3.4}{\376\377\0003\000.\0004\000\040\000L\000o\000c\000a\000l\000i\000z\000a\000t\000i\000o\000n}{section.3}% 8
\BOOKMARK [2][-]{subsection.3.5}{\376\377\0003\000.\0005\000\040\000C\000o\000r\000r\000e\000c\000t\000i\000n\000g\000\040\000t\000h\000e\000\040\000L\000o\000c\000a\000t\000i\000o\000n}{section.3}% 9
\BOOKMARK [1][-]{section.4}{\376\377\0004\000\040\000P\000E\000R\000F\000O\000R\000M\000A\000N\000C\000E\000\040\000E\000V\000A\000L\000U\000A\000T\000I\000O\000N}{}% 10
\BOOKMARK [2][-]{subsection.4.1}{\376\377\0004\000.\0001\000\040\000E\000x\000p\000e\000r\000i\000m\000e\000n\000t\000s}{section.4}% 11
\BOOKMARK [2][-]{subsection.4.2}{\376\377\0004\000.\0002\000\040\000P\000e\000r\000f\000o\000r\000m\000a\000n\000c\000e\000\040\000o\000f\000\040\000L\000o\000c\000a\000l\000i\000z\000a\000t\000i\000o\000n}{section.4}% 12
\BOOKMARK [2][-]{subsection.4.3}{\376\377\0004\000.\0003\000\040\000I\000m\000p\000a\000c\000t\000\040\000o\000f\000\040\000D\000e\000v\000i\000c\000e\000\040\000P\000l\000a\000c\000e\000m\000e\000n\000t}{section.4}% 13
\BOOKMARK [2][-]{subsection.4.4}{\376\377\0004\000.\0004\000\040\000I\000m\000p\000a\000c\000t\000\040\000o\000f\000\040\000M\000o\000v\000i\000n\000g\000\040\000S\000p\000e\000e\000d}{section.4}% 14
\BOOKMARK [2][-]{subsection.4.5}{\376\377\0004\000.\0005\000\040\000P\000e\000r\000f\000o\000r\000m\000a\000n\000c\000e\000\040\000a\000t\000\040\000D\000i\000f\000f\000e\000r\000e\000n\000t\000\040\000R\000o\000o\000m\000\040\000L\000a\000y\000o\000u\000t}{section.4}% 15
\BOOKMARK [2][-]{subsection.4.6}{\376\377\0004\000.\0006\000\040\000I\000m\000p\000a\000c\000t\000\040\000o\000f\000\040\000D\000i\000f\000f\000e\000r\000e\000n\000t\000\040\000D\000e\000v\000i\000c\000e}{section.4}% 16
\BOOKMARK [2][-]{subsection.4.7}{\376\377\0004\000.\0007\000\040\000I\000m\000p\000a\000c\000t\000\040\000o\000f\000\040\000N\000o\000i\000s\000e}{section.4}% 17
\BOOKMARK [2][-]{subsection.4.8}{\376\377\0004\000.\0008\000\040\000I\000m\000p\000a\000c\000t\000\040\000o\000f\000\040\000L\000o\000c\000a\000t\000i\000o\000n\000\040\000C\000o\000r\000r\000e\000c\000t\000i\000o\000n\000\040\000M\000o\000d\000u\000l\000e}{section.4}% 18
\BOOKMARK [1][-]{section.5}{\376\377\0005\000\040\000D\000i\000s\000c\000u\000s\000s\000i\000o\000n\000s}{}% 19
\BOOKMARK [1][-]{section.6}{\376\377\0006\000\040\000C\000O\000N\000C\000L\000U\000S\000I\000O\000N}{}% 20
\BOOKMARK [1][-]{section*.13}{\376\377\000R\000e\000f\000e\000r\000e\000n\000c\000e\000s}{}% 21
