\relax 
\providecommand\hyper@newdestlabel[2]{}
\providecommand\HyperFirstAtBeginDocument{\AtBeginDocument}
\HyperFirstAtBeginDocument{\ifx\hyper@anchor\@undefined
\global\let\oldcontentsline\contentsline
\gdef\contentsline#1#2#3#4{\oldcontentsline{#1}{#2}{#3}}
\global\let\oldnewlabel\newlabel
\gdef\newlabel#1#2{\newlabelxx{#1}#2}
\gdef\newlabelxx#1#2#3#4#5#6{\oldnewlabel{#1}{{#2}{#3}}}
\AtEndDocument{\ifx\hyper@anchor\@undefined
\let\contentsline\oldcontentsline
\let\newlabel\oldnewlabel
\fi}
\fi}
\global\let\hyper@last\relax 
\gdef\HyperFirstAtBeginDocument#1{#1}
\providecommand\HyField@AuxAddToFields[1]{}
\providecommand\HyField@AuxAddToCoFields[2]{}
\citation{matz2014effects}
\citation{predict_indoor}
\citation{zhang2016litell,van2014camera}
\citation{langlois2017indoor}
\citation{yuan2014localization}
\citation{mirshekari2018occupant}
\citation{hu2018lightitude,zhu2017enabling}
\citation{ni2003landmarc,jin2006indoor,wang2013dude,wang2013rf}
\citation{adib15:NSDI:multi,gjengset14:MobiCom:phaser,xiong2013arraytrack,vasisht16:NSDI:decimeter,xiong15:MobiCom:tonetrack,qian2018:mobisys:widar2,joshi:NSDI:2015wideo,soltanaghaei18:MobiSys:multipath,kotaru15:SIGCOMM:spotfi,wang16:mobicom:lifs}
\citation{vasisht18:IMWUT:duet,zhao19:DCOSS:mid,gu19:MNSS:mmsense,pegoraro20::multi}
\citation{lin19:MobiCom:rebooting,cheng20:INFOCOM:acouradar,mao16:MobiCom:cat,nandakumar17:IMWUT:covertband,peng2012beepbeep,zhou17:ENS:battracker,zhang2018vernier,liu2015guoguo}
\citation{gupta12:HFCS:soundwave,nandakumar2016fingerio,mao19:MobiCom:rnn,yun17:MobiSys:strata,chen2017echotrack,wang2016device,wang20:push}
\@writefile{toc}{\contentsline {section}{Abstract}{1}{section*.1}}
\@writefile{toc}{\contentsline {section}{\numberline {1}INTRODUCTION}{1}{section.1}}
\citation{yuan2014localization}
\citation{fourati2014heterogeneous}
\citation{zhang2016litell,van2014camera,xu::xuedge,bowman17:ICRA:probabilistic}
\citation{taketomi2017visual}
\citation{orr2000smart,mirshekari2018occupant}
\citation{kuo2014luxapose,gao2015sextant,xie2016lips,wei2017celli,liu2017smartlight,hu2018lightitude}
\@writefile{toc}{\contentsline {section}{\numberline {2}RELATED WORK}{2}{section.2}}
\citation{ni2003landmarc,jin2006indoor,wang2013dude,wang2013rf}
\citation{Chen20:InfoCom:TagRay,Yang20:InfoCom:RF-Ear}
\citation{adib15:NSDI:multi,gjengset14:MobiCom:phaser,xiong2013arraytrack,vasisht16:NSDI:decimeter,xiong15:MobiCom:tonetrack,qian2018:mobisys:widar2,joshi:NSDI:2015wideo,soltanaghaei18:MobiSys:multipath,kotaru15:SIGCOMM:spotfi,wang16:mobicom:lifs}
\citation{vasisht18:IMWUT:duet,zhao19:DCOSS:mid,gu19:MNSS:mmsense,pegoraro20::multi}
\citation{lin19:MobiCom:rebooting,cheng20:INFOCOM:acouradar,mao16:MobiCom:cat,peng2012beepbeep,zhou17:ENS:battracker,zhang2018vernier,liu2015guoguo}
\citation{gupta12:HFCS:soundwave,nandakumar2016fingerio,mao19:MobiCom:rnn,chen2017echotrack,wang2016device,wang20:push}
\citation{zhang17:CCS:hearing}
\citation{lu18:infocom:lippass}
\citation{chauhan17:MSAS:breathprint}
\citation{nandakumar17:IMWUT:covertband}
\citation{yun17:MobiSys:strata}
\citation{shen2020voice}
\citation{shannon1949communication}
\@writefile{lof}{\contentsline {figure}{\numberline {1}{\ignorespaces The workflow of EchoSpot.\relax }}{4}{figure.caption.2}}
\providecommand*\caption@xref[2]{\@setref\relax\@undefined{#1}}
\newlabel{systemdesign}{{1}{4}{The workflow of EchoSpot.\relax }{figure.caption.2}{}}
\@writefile{toc}{\contentsline {section}{\numberline {3}SYSTEM DESIGN}{4}{section.3}}
\newlabel{sec:sys_des}{{3}{4}{SYSTEM DESIGN}{section.3}{}}
\@writefile{toc}{\contentsline {subsection}{\numberline {3.1}System Overview}{4}{subsection.3.1}}
\citation{sorrentino2012accurate,brugger2010fmcw}
\@writefile{toc}{\contentsline {subsection}{\numberline {3.2}Signal Generation}{5}{subsection.3.2}}
\newlabel{eq2}{{2}{5}{Signal Generation}{equation.3.2}{}}
\newlabel{eq_d}{{3}{5}{Signal Generation}{equation.3.3}{}}
\citation{schroeder2010x}
\citation{graham2015software}
\@writefile{lof}{\contentsline {figure}{\numberline {2}{\ignorespaces Autcorrelation of the windowed signal, almost no sidelobes.\relax }}{6}{figure.caption.3}}
\newlabel{windowed}{{2}{6}{Autcorrelation of the windowed signal, almost no sidelobes.\relax }{figure.caption.3}{}}
\@writefile{lof}{\contentsline {figure}{\numberline {3}{\ignorespaces Autcorrelation of the unwindowed signal, many sidelobes.\relax }}{6}{figure.caption.3}}
\newlabel{unwindowed}{{3}{6}{Autcorrelation of the unwindowed signal, many sidelobes.\relax }{figure.caption.3}{}}
\newlabel{basic}{{5}{6}{Signal Generation}{equation.3.5}{}}
\citation{hahn1996hilbert}
\@writefile{lof}{\contentsline {figure}{\numberline {4}{\ignorespaces Example of cross correlation.\relax }}{7}{figure.caption.4}}
\newlabel{example}{{4}{7}{Example of cross correlation.\relax }{figure.caption.4}{}}
\@writefile{lof}{\contentsline {figure}{\numberline {5}{\ignorespaces Example of TOF profile, the peaks on the figure refer to the reflections in the environment.\relax }}{7}{figure.caption.4}}
\newlabel{example5}{{5}{7}{Example of TOF profile, the peaks on the figure refer to the reflections in the environment.\relax }{figure.caption.4}{}}
\@writefile{toc}{\contentsline {subsection}{\numberline {3.3}TOF Profile Generation}{7}{subsection.3.3}}
\newlabel{TOF Profile Generation}{{3.3}{7}{TOF Profile Generation}{figure.caption.4}{}}
\newlabel{correlation}{{6}{7}{TOF Profile Generation}{equation.3.6}{}}
\newlabel{delay}{{7}{7}{TOF Profile Generation}{equation.3.7}{}}
\@writefile{lof}{\contentsline {figure}{\numberline {6}{\ignorespaces TOF profile after eliminating the time error.\relax }}{8}{figure.caption.5}}
\newlabel{example2}{{6}{8}{TOF profile after eliminating the time error.\relax }{figure.caption.5}{}}
\@writefile{lof}{\contentsline {figure}{\numberline {7}{\ignorespaces Denoised TOF profile, only the person reflection and the multi path caused by the person remain.\relax }}{8}{figure.caption.5}}
\newlabel{pure}{{7}{8}{Denoised TOF profile, only the person reflection and the multi path caused by the person remain.\relax }{figure.caption.5}{}}
\@writefile{toc}{\contentsline {subsection}{\numberline {3.4}Localization}{9}{subsection.3.4}}
\newlabel{sec:localization}{{3.4}{9}{Localization}{subsection.3.4}{}}
\newlabel{solution}{{9}{9}{Localization}{equation.3.9}{}}
\@writefile{lof}{\contentsline {figure}{\numberline {8}{\ignorespaces Location model, R indicate the people and S indicate the speaker.\relax }}{10}{figure.caption.6}}
\newlabel{wall}{{8}{10}{Location model, R indicate the people and S indicate the speaker.\relax }{figure.caption.6}{}}
\@writefile{lof}{\contentsline {figure}{\numberline {9}{\ignorespaces Different reflection path when the signal reflect from the body, d is the shortest path, b is the longest path, h is the height of speaker.\relax }}{10}{figure.caption.6}}
\newlabel{reflection}{{9}{10}{Different reflection path when the signal reflect from the body, d is the shortest path, b is the longest path, h is the height of speaker.\relax }{figure.caption.6}{}}
\@writefile{lof}{\contentsline {figure}{\numberline {10}{\ignorespaces Reflection from body and wall, the second peak is the reflection from the wall.\relax }}{10}{figure.caption.6}}
\newlabel{sample4}{{10}{10}{Reflection from body and wall, the second peak is the reflection from the wall.\relax }{figure.caption.6}{}}
\citation{welch1995introduction}
\citation{lakoba2005modifications}
\@writefile{toc}{\contentsline {subsection}{\numberline {3.5}Correcting the Location}{11}{subsection.3.5}}
\citation{kotaru2015spotfi,xiong2013arraytrack}
\@writefile{lof}{\contentsline {figure}{\numberline {11}{\ignorespaces Averaged localization errors at $1m, 2m, 3m, 4m$ and $5m$.\relax }}{12}{figure.caption.7}}
\newlabel{Distance}{{11}{12}{Averaged localization errors at $1m, 2m, 3m, 4m$ and $5m$.\relax }{figure.caption.7}{}}
\@writefile{lof}{\contentsline {figure}{\numberline {12}{\ignorespaces Tracking the moving trajectory of a person.\relax }}{12}{figure.caption.7}}
\newlabel{Rectangle}{{12}{12}{Tracking the moving trajectory of a person.\relax }{figure.caption.7}{}}
\@writefile{lof}{\contentsline {figure}{\numberline {13}{\ignorespaces Locating a static person at different reference points.\relax }}{12}{figure.caption.7}}
\newlabel{points}{{13}{12}{Locating a static person at different reference points.\relax }{figure.caption.7}{}}
\@writefile{toc}{\contentsline {section}{\numberline {4}PERFORMANCE EVALUATION}{12}{section.4}}
\newlabel{sec:performance}{{4}{12}{PERFORMANCE EVALUATION}{section.4}{}}
\@writefile{toc}{\contentsline {subsection}{\numberline {4.1}Experiments}{12}{subsection.4.1}}
\@writefile{toc}{\contentsline {subsection}{\numberline {4.2}Performance of Localization}{12}{subsection.4.2}}
\@writefile{lof}{\contentsline {figure}{\numberline {14}{\ignorespaces CDF for Trajectory Error and Localization Error.\relax }}{13}{figure.caption.8}}
\newlabel{CDF}{{14}{13}{CDF for Trajectory Error and Localization Error.\relax }{figure.caption.8}{}}
\@writefile{lof}{\contentsline {figure}{\numberline {15}{\ignorespaces Impact of the speaker separation.\relax }}{13}{figure.caption.8}}
\newlabel{sepration}{{15}{13}{Impact of the speaker separation.\relax }{figure.caption.8}{}}
\@writefile{lof}{\contentsline {figure}{\numberline {16}{\ignorespaces Impact of the height.\relax }}{13}{figure.caption.8}}
\newlabel{height}{{16}{13}{Impact of the height.\relax }{figure.caption.8}{}}
\@writefile{toc}{\contentsline {subsection}{\numberline {4.3}Impact of Device Placement}{13}{subsection.4.3}}
\newlabel{placement}{{4.3}{13}{Impact of Device Placement}{subsection.4.3}{}}
\@writefile{toc}{\contentsline {subsection}{\numberline {4.4}Impact of Moving Speed}{14}{subsection.4.4}}
\newlabel{sec_speed}{{4.4}{14}{Impact of Moving Speed}{subsection.4.4}{}}
\@writefile{toc}{\contentsline {subsection}{\numberline {4.5}Performance at Different Room Layout}{14}{subsection.4.5}}
\@writefile{lof}{\contentsline {figure}{\numberline {17}{\ignorespaces Impact of the speed.\relax }}{15}{figure.caption.9}}
\newlabel{speed}{{17}{15}{Impact of the speed.\relax }{figure.caption.9}{}}
\@writefile{lof}{\contentsline {figure}{\numberline {18}{\ignorespaces Impact of the environment.\relax }}{15}{figure.caption.9}}
\newlabel{room}{{18}{15}{Impact of the environment.\relax }{figure.caption.9}{}}
\@writefile{lof}{\contentsline {figure}{\numberline {19}{\ignorespaces Impact of the Kalman filter.\relax }}{15}{figure.caption.9}}
\newlabel{Kalman}{{19}{15}{Impact of the Kalman filter.\relax }{figure.caption.9}{}}
\@writefile{toc}{\contentsline {subsection}{\numberline {4.6}Impact of Different Device}{15}{subsection.4.6}}
\@writefile{toc}{\contentsline {subsection}{\numberline {4.7}Impact of Noise}{15}{subsection.4.7}}
\@writefile{toc}{\contentsline {subsection}{\numberline {4.8}Impact of Location Correction Module}{15}{subsection.4.8}}
\@writefile{lof}{\contentsline {figure}{\numberline {20}{\ignorespaces Spectrum of human talking.\relax }}{16}{figure.caption.10}}
\newlabel{talk}{{20}{16}{Spectrum of human talking.\relax }{figure.caption.10}{}}
\@writefile{lof}{\contentsline {figure}{\numberline {21}{\ignorespaces Spectrum of music.\relax }}{16}{figure.caption.10}}
\newlabel{music}{{21}{16}{Spectrum of music.\relax }{figure.caption.10}{}}
\@writefile{lof}{\contentsline {figure}{\numberline {22}{\ignorespaces Spectrum of rock music.\relax }}{16}{figure.caption.10}}
\newlabel{rock}{{22}{16}{Spectrum of rock music.\relax }{figure.caption.10}{}}
\@writefile{lof}{\contentsline {figure}{\numberline {23}{\ignorespaces Spectrum of utensils.\relax }}{16}{figure.caption.10}}
\newlabel{wash}{{23}{16}{Spectrum of utensils.\relax }{figure.caption.10}{}}
\@writefile{lof}{\contentsline {figure}{\numberline {24}{\ignorespaces Impact of the device.\relax }}{16}{figure.caption.11}}
\newlabel{device}{{24}{16}{Impact of the device.\relax }{figure.caption.11}{}}
\@writefile{lof}{\contentsline {figure}{\numberline {25}{\ignorespaces Impact of the noise.\relax }}{16}{figure.caption.11}}
\newlabel{noise}{{25}{16}{Impact of the noise.\relax }{figure.caption.11}{}}
\newlabel{subsec:discussion}{{4.8}{16}{Impact of Location Correction Module}{figure.caption.10}{}}
\@writefile{toc}{\contentsline {section}{\numberline {5}Discussions}{16}{section.5}}
\citation{oohashi2000inaudible}
\citation{fletcher2018effects,leighton2016some}
\citation{wixey2020feasibility}
\citation{SpeedofSound}
\bibstyle{ACM-Reference-Format}
\bibdata{ref}
\bibcite{adib15:NSDI:multi}{{1}{2015}{{Adib et~al\unhbox \voidb@x \hbox {.}}}{{Adib, Kabelac, and Katabi}}}
\bibcite{bowman17:ICRA:probabilistic}{{2}{2017}{{Bowman et~al\unhbox \voidb@x \hbox {.}}}{{Bowman, Atanasov, Daniilidis, and Pappas}}}
\bibcite{brugger2010fmcw}{{3}{2010}{{Brugger et~al\unhbox \voidb@x \hbox {.}}}{{Brugger, Christ, Kemeth, Nagy, Schaefer, and Pietrzyk}}}
\@writefile{toc}{\contentsline {section}{\numberline {6}CONCLUSION}{17}{section.6}}
\newlabel{sec:conclude}{{6}{17}{CONCLUSION}{section.6}{}}
\@writefile{toc}{\contentsline {section}{References}{17}{section*.13}}
\bibcite{chauhan17:MSAS:breathprint}{{4}{2017}{{Chauhan et~al\unhbox \voidb@x \hbox {.}}}{{Chauhan, Hu, Seneviratne, Misra, Seneviratne, and Lee}}}
\bibcite{chen2017echotrack}{{5}{2017}{{Chen et~al\unhbox \voidb@x \hbox {.}}}{{Chen, Li, and Wang}}}
\bibcite{Chen20:InfoCom:TagRay}{{6}{2020}{{Chen et~al\unhbox \voidb@x \hbox {.}}}{{Chen, Yang, Xiong, Feng, and Li}}}
\bibcite{cheng20:INFOCOM:acouradar}{{7}{2020}{{Cheng et~al\unhbox \voidb@x \hbox {.}}}{{Cheng, Wang, Zhang, Wang, Xu, and Wang}}}
\bibcite{fletcher2018effects}{{8}{2018}{{Fletcher et~al\unhbox \voidb@x \hbox {.}}}{{Fletcher, Lloyd~Jones, White, Dolder, Leighton, and Lineton}}}
\bibcite{SpeedofSound}{{9}{[n.d.]}{{for Nondestructive~Evaluation}}{{for Nondestructive~Evaluation}}}
\bibcite{fourati2014heterogeneous}{{10}{2014}{{Fourati}}{{Fourati}}}
\bibcite{gao2015sextant}{{11}{2015}{{Gao et~al\unhbox \voidb@x \hbox {.}}}{{Gao, Tian, Ye, Luo, Bian, Wang, Wang, and Li}}}
\bibcite{gjengset14:MobiCom:phaser}{{12}{2014}{{Gjengset et~al\unhbox \voidb@x \hbox {.}}}{{Gjengset, Xiong, McPhillips, and Jamieson}}}
\bibcite{graham2015software}{{13}{2015}{{Graham et~al\unhbox \voidb@x \hbox {.}}}{{Graham, Simmons, Nguyen, and Zhou}}}
\bibcite{gu19:MNSS:mmsense}{{14}{2019}{{Gu et~al\unhbox \voidb@x \hbox {.}}}{{Gu, Fang, Yang, Hu, and Mohapatra}}}
\bibcite{gupta12:HFCS:soundwave}{{15}{2012}{{Gupta et~al\unhbox \voidb@x \hbox {.}}}{{Gupta, Morris, Patel, and Tan}}}
\bibcite{hahn1996hilbert}{{16}{1996}{{Hahn}}{{Hahn}}}
\bibcite{hu2018lightitude}{{17}{2018}{{Hu et~al\unhbox \voidb@x \hbox {.}}}{{Hu, Xiong, Huang, Li, Yang, Zhang, and Mao}}}
\bibcite{predict_indoor}{{18}{2017}{{IndustryArc}}{{IndustryArc}}}
\bibcite{jin2006indoor}{{19}{2006}{{Jin et~al\unhbox \voidb@x \hbox {.}}}{{Jin, Lu, and Park}}}
\bibcite{joshi:NSDI:2015wideo}{{20}{2015}{{Joshi et~al\unhbox \voidb@x \hbox {.}}}{{Joshi, Bharadia, Kotaru, and Katti}}}
\bibcite{kotaru15:SIGCOMM:spotfi}{{21}{2015a}{{Kotaru et~al\unhbox \voidb@x \hbox {.}}}{{Kotaru, Joshi, Bharadia, and Katti}}}
\bibcite{kotaru2015spotfi}{{22}{2015b}{{Kotaru et~al\unhbox \voidb@x \hbox {.}}}{{Kotaru, Joshi, Bharadia, and Katti}}}
\bibcite{kuo2014luxapose}{{23}{2014}{{Kuo et~al\unhbox \voidb@x \hbox {.}}}{{Kuo, Pannuto, Hsiao, and Dutta}}}
\bibcite{lakoba2005modifications}{{24}{2005}{{Lakoba et~al\unhbox \voidb@x \hbox {.}}}{{Lakoba, Kaup, and Finkelstein}}}
\bibcite{langlois2017indoor}{{25}{2017}{{Langlois et~al\unhbox \voidb@x \hbox {.}}}{{Langlois, Tiku, and Pasricha}}}
\bibcite{leighton2016some}{{26}{2016}{{Leighton}}{{Leighton}}}
\bibcite{lin19:MobiCom:rebooting}{{27}{2019}{{Lin et~al\unhbox \voidb@x \hbox {.}}}{{Lin, An, and Yang}}}
\bibcite{liu2015guoguo}{{28}{2015}{{Liu et~al\unhbox \voidb@x \hbox {.}}}{{Liu, Liu, and Li}}}
\bibcite{liu2017smartlight}{{29}{2017}{{Liu and He}}{{Liu and He}}}
\bibcite{lu18:infocom:lippass}{{30}{2018}{{Lu et~al\unhbox \voidb@x \hbox {.}}}{{Lu, Yu, Chen, Liu, Zhu, Liu, and Li}}}
\bibcite{mao16:MobiCom:cat}{{31}{2016}{{Mao et~al\unhbox \voidb@x \hbox {.}}}{{Mao, He, and Qiu}}}
\bibcite{mao19:MobiCom:rnn}{{32}{2019}{{Mao et~al\unhbox \voidb@x \hbox {.}}}{{Mao, Wang, Sun, Qiu, Pradhan, and Chen}}}
\bibcite{matz2014effects}{{33}{2014}{{Matz et~al\unhbox \voidb@x \hbox {.}}}{{Matz, Stieb, Davis, Egyed, Rose, Chou, and Brion}}}
\bibcite{mirshekari2018occupant}{{34}{2018}{{Mirshekari et~al\unhbox \voidb@x \hbox {.}}}{{Mirshekari, Pan, Fagert, Schooler, Zhang, and Noh}}}
\bibcite{nandakumar2016fingerio}{{35}{2016}{{Nandakumar et~al\unhbox \voidb@x \hbox {.}}}{{Nandakumar, Iyer, Tan, and Gollakota}}}
\bibcite{nandakumar17:IMWUT:covertband}{{36}{2017}{{Nandakumar et~al\unhbox \voidb@x \hbox {.}}}{{Nandakumar, Takakuwa, Kohno, and Gollakota}}}
\bibcite{ni2003landmarc}{{37}{2003}{{Ni et~al\unhbox \voidb@x \hbox {.}}}{{Ni, Liu, Lau, and Patil}}}
\bibcite{oohashi2000inaudible}{{38}{2000}{{Oohashi et~al\unhbox \voidb@x \hbox {.}}}{{Oohashi, Nishina, Honda, Yonekura, Fuwamoto, Kawai, Maekawa, Nakamura, Fukuyama, and Shibasaki}}}
\bibcite{orr2000smart}{{39}{2000}{{Orr and Abowd}}{{Orr and Abowd}}}
\bibcite{pegoraro20::multi}{{40}{2020}{{Pegoraro et~al\unhbox \voidb@x \hbox {.}}}{{Pegoraro, Meneghello, and Rossi}}}
\bibcite{peng2012beepbeep}{{41}{2012}{{Peng et~al\unhbox \voidb@x \hbox {.}}}{{Peng, Shen, and Zhang}}}
\bibcite{qian2018:mobisys:widar2}{{42}{2018}{{Qian et~al\unhbox \voidb@x \hbox {.}}}{{Qian, Wu, Zhang, Zhang, Yang, and Liu}}}
\bibcite{schroeder2010x}{{43}{2010}{{Schroeder and Rohling}}{{Schroeder and Rohling}}}
\bibcite{shannon1949communication}{{44}{1949}{{Shannon}}{{Shannon}}}
\bibcite{shen2020voice}{{45}{2020}{{Shen et~al\unhbox \voidb@x \hbox {.}}}{{Shen, Chen, Wei, Yang, and Choudhury}}}
\bibcite{soltanaghaei18:MobiSys:multipath}{{46}{2018}{{Soltanaghaei et~al\unhbox \voidb@x \hbox {.}}}{{Soltanaghaei, Kalyanaraman, and Whitehouse}}}
\bibcite{sorrentino2012accurate}{{47}{2012}{{Sorrentino et~al\unhbox \voidb@x \hbox {.}}}{{Sorrentino, Sbarra, Urbani, Montori, Gatti, and Marcaccioli}}}
\bibcite{taketomi2017visual}{{48}{2017}{{Taketomi et~al\unhbox \voidb@x \hbox {.}}}{{Taketomi, Uchiyama, and Ikeda}}}
\bibcite{van2014camera}{{49}{2014}{{Van~Opdenbosch et~al\unhbox \voidb@x \hbox {.}}}{{Van~Opdenbosch, Schroth, Huitl, Hilsenbeck, Garcea, and Steinbach}}}
\bibcite{vasisht18:IMWUT:duet}{{50}{2018}{{Vasisht et~al\unhbox \voidb@x \hbox {.}}}{{Vasisht, Jain, Hsu, Kabelac, and Katabi}}}
\bibcite{vasisht16:NSDI:decimeter}{{51}{2016}{{Vasisht et~al\unhbox \voidb@x \hbox {.}}}{{Vasisht, Kumar, and Katabi}}}
\bibcite{wang2013rf}{{52}{2013}{{Wang et~al\unhbox \voidb@x \hbox {.}}}{{Wang, Adib, Knepper, Katabi, and Rus}}}
\bibcite{wang16:mobicom:lifs}{{53}{2016a}{{Wang et~al\unhbox \voidb@x \hbox {.}}}{{Wang, Jiang, Xiong, Jamieson, Chen, Fang, and Xie}}}
\bibcite{wang2013dude}{{54}{2013}{{Wang and Katabi}}{{Wang and Katabi}}}
\bibcite{wang2016device}{{55}{2016b}{{Wang et~al\unhbox \voidb@x \hbox {.}}}{{Wang, Liu, and Sun}}}
\bibcite{wang20:push}{{56}{2020}{{Wang et~al\unhbox \voidb@x \hbox {.}}}{{Wang, Shen, and Zheng}}}
\bibcite{wei2017celli}{{57}{2017}{{Wei et~al\unhbox \voidb@x \hbox {.}}}{{Wei, Huang, Tsai, and Lin}}}
\bibcite{welch1995introduction}{{58}{1995}{{Welch et~al\unhbox \voidb@x \hbox {.}}}{{Welch, Bishop, et~al\unhbox \voidb@x \hbox {.}}}}
\bibcite{wixey2020feasibility}{{59}{2020}{{Wixey et~al\unhbox \voidb@x \hbox {.}}}{{Wixey, De~Cristofaro, and Johnson}}}
\bibcite{xie2016lips}{{60}{2016}{{Xie et~al\unhbox \voidb@x \hbox {.}}}{{Xie, Chen, Tan, Lu, Liu, Wu, and He}}}
\bibcite{xiong2013arraytrack}{{61}{2013}{{Xiong and Jamieson}}{{Xiong and Jamieson}}}
\bibcite{xiong15:MobiCom:tonetrack}{{62}{2015}{{Xiong et~al\unhbox \voidb@x \hbox {.}}}{{Xiong, Sundaresan, and Jamieson}}}
\bibcite{xu::xuedge}{{63}{2020}{{Xu et~al\unhbox \voidb@x \hbox {.}}}{{Xu, Cao, Li, Huang, Qian, Shangguan, and Yang}}}
\bibcite{Yang20:InfoCom:RF-Ear}{{64}{2020}{{Yang et~al\unhbox \voidb@x \hbox {.}}}{{Yang, Feng, Xiong, Chen, and Li}}}
\bibcite{yuan2014localization}{{65}{2014}{{Yuan and Chen}}{{Yuan and Chen}}}
\bibcite{yun17:MobiSys:strata}{{66}{2017}{{Yun et~al\unhbox \voidb@x \hbox {.}}}{{Yun, Chen, Zheng, Qiu, and Mao}}}
\bibcite{zhang2016litell}{{67}{2016}{{Zhang and Zhang}}{{Zhang and Zhang}}}
\bibcite{zhang17:CCS:hearing}{{68}{2017}{{Zhang et~al\unhbox \voidb@x \hbox {.}}}{{Zhang, Tan, and Yang}}}
\bibcite{zhang2018vernier}{{69}{2018}{{Zhang et~al\unhbox \voidb@x \hbox {.}}}{{Zhang, Wang, Wang, Wang, and Liu}}}
\bibcite{zhao19:DCOSS:mid}{{70}{2019}{{Zhao et~al\unhbox \voidb@x \hbox {.}}}{{Zhao, Lu, Wang, Chen, Wang, Trigoni, and Markham}}}
\bibcite{zhou17:ENS:battracker}{{71}{2017}{{Zhou et~al\unhbox \voidb@x \hbox {.}}}{{Zhou, Elbadry, Gao, and Ye}}}
\bibcite{zhu2017enabling}{{72}{2017}{{Zhu and Zhang}}{{Zhu and Zhang}}}
\newlabel{tocindent-1}{0pt}
\newlabel{tocindent0}{0pt}
\newlabel{tocindent1}{4.65pt}
\newlabel{tocindent2}{11.49998pt}
\newlabel{tocindent3}{0pt}
\newlabel{TotPages}{{20}{20}{}{page.20}{}}
