\relax 
\providecommand\zref@newlabel[2]{}
\providecommand\hyper@newdestlabel[2]{}
\providecommand\AtEndDvi@Check{}
\AtEndDvi@Check
\providecommand\HyperFirstAtBeginDocument{\AtBeginDocument}
\HyperFirstAtBeginDocument{\ifx\hyper@anchor\@undefined
\global\let\oldcontentsline\contentsline
\gdef\contentsline#1#2#3#4{\oldcontentsline{#1}{#2}{#3}}
\global\let\oldnewlabel\newlabel
\gdef\newlabel#1#2{\newlabelxx{#1}#2}
\gdef\newlabelxx#1#2#3#4#5#6{\oldnewlabel{#1}{{#2}{#3}}}
\AtEndDocument{\ifx\hyper@anchor\@undefined
\let\contentsline\oldcontentsline
\let\newlabel\oldnewlabel
\fi}
\fi}
\global\let\hyper@last\relax 
\gdef\HyperFirstAtBeginDocument#1{#1}
\providecommand\HyField@AuxAddToFields[1]{}
\providecommand\HyField@AuxAddToCoFields[2]{}
\@writefile{toc}{\contentsline {section}{\numberline {1}Detailed Responses and Revision for Individual Reviewer Feedback}{1}{section.1}\protected@file@percent }
\@writefile{toc}{\contentsline {subsection}{\numberline {1.1}Response to Reviewer 1}{1}{subsection.1.1}\protected@file@percent }
\@writefile{toc}{\contentsline {subsubsection}{\numberline {1.1.1}Requested Changes}{1}{subsubsection.1.1.1}\protected@file@percent }
\@writefile{toc}{\contentsline {subsection}{\numberline {1.2}Response to Reviewer 2}{1}{subsection.1.2}\protected@file@percent }
\@writefile{toc}{\contentsline {subsubsection}{\numberline {1.2.1}Requested Changes}{1}{subsubsection.1.2.1}\protected@file@percent }
\@writefile{toc}{\contentsline {subsubsection}{\numberline {1.2.2}Other Comments}{1}{subsubsection.1.2.2}\protected@file@percent }
\@writefile{toc}{\contentsline {subsection}{\numberline {1.3}Response to Reviewer 3}{1}{subsection.1.3}\protected@file@percent }
\@writefile{toc}{\contentsline {subsubsection}{\numberline {1.3.1}Requested Changes}{1}{subsubsection.1.3.1}\protected@file@percent }
\newlabel{tocindent-1}{0pt}
\newlabel{tocindent0}{0pt}
\newlabel{tocindent1}{4.65pt}
\newlabel{tocindent2}{11.49998pt}
\newlabel{tocindent3}{20.22pt}
\@writefile{toc}{\contentsline {subsubsection}{\numberline {1.3.2}Other Comments}{2}{subsubsection.1.3.2}\protected@file@percent }
\newlabel{TotPages}{{2}{2}{}{page.2}{}}
\zref@newlabel{LastPage}{\default{1.3.2}\page{2}\abspage{2}}
